[
    {
        "project": "Mohamad",
        "date": 1427207139000,
        "progress": 5
    },
    {
        "project": "Abdul",
        "date": 1427412725000,
        "progress": 46
    },
    {
        "project": "Weliem",
        "date": 1427546580000,
        "progress": 23
    },
    {
        "project": "Quis",
        "date": 1427891640000,
        "progress": 67
    },
    {
        "project": "Fawaz",
        "date": 1428830580000,
        "progress": 12
    }
]
